Tue Oct  9 18:42:24 CEST 2018
Preloading tcmalloc_minimal.so
Py:Athena            INFO including file "AthenaCommon/Preparation.py"
Py:Athena            INFO using release [AthenaWorkDir-22.0.1] [x86_64-slc6-gcc8-dbg] [atlas-work3/eea13fb904b] -- built on [2018-10-09T1607]
Py:Athena            INFO including file "AthenaCommon/Atlas.UnixStandardJob.py"
Py:Athena            INFO executing ROOT6Setup
Py:Athena            INFO configuring AthenaHive with [1] concurrent threads and [1] concurrent events
Py:AlgScheduler      INFO setting up AvalancheSchedulerSvc/AvalancheSchedulerSvc with 1 threads
Py:Athena            INFO including file "AthenaCommon/Execution.py"
Py:Athena            INFO including file "DataModelRunTests/xAODTestSymlinks2MT_jo.py"
Py:Athena            INFO including file "DataModelRunTests/xAODTestSymlinks2_jo.py"
Py:ConfigurableDb    INFO Read module info for 5504 configurables from 72 genConfDb files
Py:ConfigurableDb    INFO No duplicates have been found: that's good !
Py:Athena            INFO including file "DataModelRunTests/loadReadDicts.py"
Py:Athena            INFO including file "DataModelRunTests/setCatalog.py"
Py:Athena            INFO including file "AthenaCommon/runbatch.py"
[?1034hApplicationMgr       INFO Updating Gaudi::PluginService::SetDebug(level) to level= 'PluginDebugLevel':0
ApplicationMgr       INFO Updating Gaudi::PluginService::SetDebug(level) to level= 'PluginDebugLevel':0
MessageSvc           INFO Activating in a separate thread
ApplicationMgr    SUCCESS 
====================================================================================================================================
                                                   Welcome to ApplicationMgr (GaudiCoreSvc v30r3)
                                          running on lxplus028.cern.ch on Tue Oct  9 18:42:45 2018
====================================================================================================================================
ApplicationMgr       INFO Successfully loaded modules : AthenaServices
ApplicationMgr       INFO Application Manager Configured successfully
ApplicationMgr                                     INFO Updating Gaudi::PluginService::SetDebug(level) to level= 'PluginDebugLevel':0
AthDictLoaderSvc                                   INFO in initialize...
AthDictLoaderSvc                                   INFO acquired Dso-registry
ClassIDSvc                                         INFO  getRegistryEntries: read 3632 CLIDRegistry entries for module ALL
CoreDumpSvc                                        INFO install f-a-t-a-l handler... (flag = -1)
CoreDumpSvc                                        INFO Handling signals: 11(Segmentation fault) 7(Bus error) 4(Illegal instruction) 8(Floating point exception) 
AthenaHiveEventLoopMgr                             INFO Initializing AthenaHiveEventLoopMgr - package version AthenaServices-00-00-00
MetaDataSvc                                        INFO Initializing MetaDataSvc - package version AthenaServices-00-00-00
AthenaPoolCnvSvc                                   INFO Initializing AthenaPoolCnvSvc - package version AthenaPoolCnvSvc-00-00-00
PoolSvc                                            INFO Set connectionsvc retry/timeout/IDLE timeout to  'ConnectionRetrialPeriod':300/ 'ConnectionRetrialTimeOut':3600/ 'ConnectionTimeOut':5 seconds with connection cleanup disabled
PoolSvc                                            INFO Frontier compression level set to 5
DBReplicaSvc                                       INFO Frontier server at (serverurl=http://atlasfrontier-local.cern.ch:8000/atlr)(serverurl=http://atlasfrontier-ai.cern.ch:8000/atlr)(serverurl=http://lcgft-atlas.gridpp.rl.ac.uk:3128/frontierATLAS)(serverurl=http://ccfrontier.in2p3.fr:23128/ccin2p3-AtlasFrontier)(proxyurl=http://ca-proxy.cern.ch:3128)(proxyurl=http://ca-proxy-meyrin.cern.ch:3128)(proxyurl=http://ca-proxy-wigner.cern.ch:3128)(proxyurl=http://atlasbpfrontier.cern.ch:3127)(proxyurl=http://atlasbpfrontier.fnal.gov:3127) will be considered for COOL data
DBReplicaSvc                                       INFO Read replica configuration from /cvmfs/atlas-nightlies.cern.ch/repo/sw/master/2018-10-08T2213/Athena/22.0.1/InstallArea/x86_64-slc6-gcc8-dbg/share/dbreplica.config
DBReplicaSvc                                       INFO Total of 10 servers found for host lxplus028.cern.ch [ATLF ATLAS_COOLPROD atlas_dd ATLAS_CONFIG INT8R INTR ATONR_COOL ATONR_CONF DEVDB11 ATLF ]
PoolSvc                                            INFO Successfully setup replica sorting algorithm
PoolSvc                                            INFO Setting up APR FileCatalog and Streams
PoolSvc                                            INFO POOL WriteCatalog is file:xAODTestSymlinks2MT_catalog.xml
DbSession                                          INFO     Open     DbSession    
Domain[ROOT_All]                                   INFO >   Access   DbDomain     READ      [ROOT_All] 
EventSelector                                      INFO Initializing EventSelector - package version EventSelectorAthenaPool-00-00-00
EventSelector                                      INFO reinitialization...
EventSelector                                      INFO EventSelection with query 
PoolSvc                                            INFO File is not in Catalog! Attempt to open it anyway.
Warning in <TClass::Init>: no dictionary for class DMTest::C_v1 is available
Warning in <TClass::Init>: no dictionary for class DMTest::CAuxContainer_v1 is available
Warning in <TClass::Init>: no dictionary for class DMTest::CInfoAuxContainer_v1 is available
Warning in <TClass::Init>: no dictionary for class DMTest::CTrigAuxContainer_v1 is available
Warning in <TClass::Init>: no dictionary for class DMTest::G_v1 is available
Warning in <TClass::Init>: no dictionary for class DMTest::GAuxContainer_v1 is available
Warning in <TClass::Init>: no dictionary for class DMTest::CVecWithData_v1 is available
Warning in <TClass::Init>: no dictionary for class ViewVector<DataVector<DMTest::C_v1> > is available
Warning in <TClass::Init>: no dictionary for class DMTest::H_v1 is available
Warning in <TClass::Init>: no dictionary for class DMTest::HAuxContainer_v1 is available
Warning in <TClass::Init>: no dictionary for class ViewVector<DataVector<DMTest::H_v1> > is available
Warning in <TClass::Init>: no dictionary for class DMTest::S2 is available
Warning in <TClass::Init>: no dictionary for class DMTest::S1 is available
Warning in <TClass::Init>: no dictionary for class ElementLink<DataVector<DMTest::C_v1> > is available
Warning in <TClass::Init>: no dictionary for class DataVector<DMTest::C_v1> is available
Warning in <TClass::Init>: no dictionary for class DataVector<DMTest::H_v1> is available
DbSession                                          INFO     Open     DbSession    
Domain[ROOT_All]                                   INFO ->  Access   DbDatabase   READ      [ROOT_All] 1AA9ED5E-1E4B-3A55-A718-BF5CAC995112
Domain[ROOT_All]                                   INFO                           xaoddata.root
RootDatabase.open                                  INFO xaoddata.root File version:61404
xaoddata.root                                      INFO Database being retired...
Domain[ROOT_All]                                   INFO ->  Deaccess DbDatabase   READ      [ROOT_All] 1AA9ED5E-1E4B-3A55-A718-BF5CAC995112
Domain[ROOT_All]                                   INFO >   Deaccess DbDomain     READ      [ROOT_All] 
PoolSvc                                            INFO File is not in Catalog! Attempt to open it anyway.
DbSession                                          INFO     Open     DbSession    
Domain[ROOT_All]                                   INFO >   Access   DbDomain     READ      [ROOT_All] 
Domain[ROOT_All]                                   INFO ->  Access   DbDatabase   READ      [ROOT_All] 1AA9ED5E-1E4B-3A55-A718-BF5CAC995112
Domain[ROOT_All]                                   INFO                           xaoddata.root
RootDatabase.open                                  INFO xaoddata.root File version:61404
xaoddata.root                                      INFO Database being retired...
Domain[ROOT_All]                                   INFO ->  Deaccess DbDatabase   READ      [ROOT_All] 1AA9ED5E-1E4B-3A55-A718-BF5CAC995112
Domain[ROOT_All]                                   INFO >   Deaccess DbDomain     READ      [ROOT_All] 
DbSession                                          INFO     Open     DbSession    
Domain[ROOT_All]                                   INFO >   Access   DbDomain     READ      [ROOT_All] 
Domain[ROOT_All]                                   INFO ->  Access   DbDatabase   READ      [ROOT_All] 26CFC7E8-56D1-E743-B5D8-F778B489126A
Domain[ROOT_All]                                   INFO                           xaoddata.root
RootDatabase.open                                  INFO xaoddata.root File version:61404
ClassIDSvc                                         INFO  getRegistryEntries: read 1996 CLIDRegistry entries for module ALL
EventPersistencySvc                                INFO Added successfully Conversion service:AthenaPoolCnvSvc
ClassIDSvc                                         INFO  getRegistryEntries: read 1080 CLIDRegistry entries for module ALL
PyComponentMgr                                     INFO Initializing PyComponentMgr...
LoadReadDicts                                      INFO Initializing LoadReadDicts...
ThreadPoolSvc                                      INFO no thread init tools attached
AvalancheSchedulerSvc                              INFO Activating scheduler in a separate thread
AvalancheSchedulerSvc                              INFO Found 7 algorithms
AvalancheSchedulerSvc                              INFO Data Dependencies for Algorithms:
  BeginIncFiringAlg
      none
  IncidentProcAlg1
      none
  SGInputLoader
      none
  LoadReadDicts
      none
  xAODTestReadSymlink
    o INPUT   ( 'DMTest::S1' , 'StoreGateSvc+S2' ) 
    o INPUT   ( 'DMTest::S2' , 'StoreGateSvc+S2' ) 
    o INPUT   ( 'DMTest::S2' , 'StoreGateSvc+S2alias' ) 
    o INPUT   ( 'SG::AuxElement' , 'StoreGateSvc+cinfo' ) 
  EndIncFiringAlg
      none
  IncidentProcAlg2
      none
AvalancheSchedulerSvc                              INFO Will attribute the following unmet INPUT dependencies to "SGInputLoader/SGInputLoader" Algorithm
   o  ( 'DMTest::S1' , 'StoreGateSvc+S2' )     required by Algorithm: 
       * xAODTestReadSymlink
   o  ( 'DMTest::S2' , 'StoreGateSvc+S2' )     required by Algorithm: 
       * xAODTestReadSymlink
   o  ( 'DMTest::S2' , 'StoreGateSvc+S2alias' )     required by Algorithm: 
       * xAODTestReadSymlink
   o  ( 'SG::AuxElement' , 'StoreGateSvc+cinfo' )     required by Algorithm: 
       * xAODTestReadSymlink
PrecedenceSvc                                      INFO Assembling CF and DF task precedence rules
PrecedenceSvc                                      INFO PrecedenceSvc initialized successfully
AvalancheSchedulerSvc                              INFO Concurrency level information:
AvalancheSchedulerSvc                              INFO  o Number of events in flight: 1
AvalancheSchedulerSvc                              INFO  o TBB thread pool size:  'ThreadPoolSize':1
HistogramPersistencySvc                         WARNING Histograms saving not required.
AthenaHiveEventLoopMgr                             INFO Setup EventSelector service EventSelector
ApplicationMgr                                     INFO Application Manager Initialized successfully
PoolSvc                                            INFO Enabled implicit multithreading in ROOT via PersistencySvc to: 1
xaoddata.root                                      INFO Database being retired...
Domain[ROOT_All]                                   INFO ->  Deaccess DbDatabase   READ      [ROOT_All] 26CFC7E8-56D1-E743-B5D8-F778B489126A
Domain[ROOT_All]                                   INFO >   Deaccess DbDomain     READ      [ROOT_All] 
DbSession                                          INFO     Open     DbSession    
Domain[ROOT_All]                                   INFO >   Access   DbDomain     READ      [ROOT_All] 
Domain[ROOT_All]                                   INFO ->  Access   DbDatabase   READ      [ROOT_All] 26CFC7E8-56D1-E743-B5D8-F778B489126A
Domain[ROOT_All]                                   INFO                           xaoddata.root
RootDatabase.open                                  INFO xaoddata.root File version:61404
ApplicationMgr                                     INFO Application Manager Started successfully
AthenaHiveEventLoopMgr                             INFO Starting loop on events
ClassIDSvc                              0   0      INFO  getRegistryEntries: read 6960 CLIDRegistry entries for module ALL
AthenaPoolConverter                     0   0      INFO massageEventInfo: unable to get OverrideRunNumberFromInput property from EventSelector 
AthenaHiveEventLoopMgr                  0   0      INFO   ===>>>  start of run 0    <<<===
AthenaHiveEventLoopMgr                  0   0      INFO   ===>>>  start processing event #0, run #0 on slot 0,  0 events processed so far  <<<===
ClassIDSvc                              0   0      INFO  getRegistryEntries: read 15 CLIDRegistry entries for module ALL
xAODTestReadSymlink                     0   0      INFO C (as AuxElement): 1000; S 0
AthenaHiveEventLoopMgr                             INFO   ===>>>  done processing event #0, run #0 on slot 0,  1 events processed so far  <<<===
AthenaHiveEventLoopMgr                  1   0      INFO   ===>>>  start processing event #1, run #0 on slot 0,  1 events processed so far  <<<===
ClassIDSvc                              1   0      INFO  getRegistryEntries: read 50 CLIDRegistry entries for module ALL
xAODTestReadSymlink                     1   0      INFO C (as AuxElement): 2000; S 100
AthenaHiveEventLoopMgr                             INFO   ===>>>  done processing event #1, run #0 on slot 0,  2 events processed so far  <<<===
AthenaHiveEventLoopMgr                  2   0      INFO   ===>>>  start processing event #2, run #0 on slot 0,  2 events processed so far  <<<===
xAODTestReadSymlink                     2   0      INFO C (as AuxElement): 3000; S 200
AthenaHiveEventLoopMgr                             INFO   ===>>>  done processing event #2, run #0 on slot 0,  3 events processed so far  <<<===
AthenaHiveEventLoopMgr                  3   0      INFO   ===>>>  start processing event #3, run #0 on slot 0,  3 events processed so far  <<<===
xAODTestReadSymlink                     3   0      INFO C (as AuxElement): 4000; S 300
AthenaHiveEventLoopMgr                             INFO   ===>>>  done processing event #3, run #0 on slot 0,  4 events processed so far  <<<===
AthenaHiveEventLoopMgr                  4   0      INFO   ===>>>  start processing event #4, run #0 on slot 0,  4 events processed so far  <<<===
xAODTestReadSymlink                     4   0      INFO C (as AuxElement): 5000; S 400
AthenaHiveEventLoopMgr                             INFO   ===>>>  done processing event #4, run #0 on slot 0,  5 events processed so far  <<<===
AthenaHiveEventLoopMgr                  5   0      INFO   ===>>>  start processing event #5, run #0 on slot 0,  5 events processed so far  <<<===
xAODTestReadSymlink                     5   0      INFO C (as AuxElement): 6000; S 500
AthenaHiveEventLoopMgr                             INFO   ===>>>  done processing event #5, run #0 on slot 0,  6 events processed so far  <<<===
AthenaHiveEventLoopMgr                  6   0      INFO   ===>>>  start processing event #6, run #0 on slot 0,  6 events processed so far  <<<===
xAODTestReadSymlink                     6   0      INFO C (as AuxElement): 7000; S 600
AthenaHiveEventLoopMgr                             INFO   ===>>>  done processing event #6, run #0 on slot 0,  7 events processed so far  <<<===
AthenaHiveEventLoopMgr                  7   0      INFO   ===>>>  start processing event #7, run #0 on slot 0,  7 events processed so far  <<<===
xAODTestReadSymlink                     7   0      INFO C (as AuxElement): 8000; S 700
AthenaHiveEventLoopMgr                             INFO   ===>>>  done processing event #7, run #0 on slot 0,  8 events processed so far  <<<===
AthenaHiveEventLoopMgr                  8   0      INFO   ===>>>  start processing event #8, run #0 on slot 0,  8 events processed so far  <<<===
xAODTestReadSymlink                     8   0      INFO C (as AuxElement): 9000; S 800
AthenaHiveEventLoopMgr                             INFO   ===>>>  done processing event #8, run #0 on slot 0,  9 events processed so far  <<<===
AthenaHiveEventLoopMgr                  9   0      INFO   ===>>>  start processing event #9, run #0 on slot 0,  9 events processed so far  <<<===
xAODTestReadSymlink                     9   0      INFO C (as AuxElement): 10000; S 900
AthenaHiveEventLoopMgr                             INFO   ===>>>  done processing event #9, run #0 on slot 0,  10 events processed so far  <<<===
AthenaHiveEventLoopMgr                  10  0      INFO   ===>>>  start processing event #10, run #0 on slot 0,  10 events processed so far  <<<===
xAODTestReadSymlink                     10  0      INFO C (as AuxElement): 11000; S 1000
AthenaHiveEventLoopMgr                             INFO   ===>>>  done processing event #10, run #0 on slot 0,  11 events processed so far  <<<===
AthenaHiveEventLoopMgr                  11  0      INFO   ===>>>  start processing event #11, run #0 on slot 0,  11 events processed so far  <<<===
xAODTestReadSymlink                     11  0      INFO C (as AuxElement): 12000; S 1100
AthenaHiveEventLoopMgr                             INFO   ===>>>  done processing event #11, run #0 on slot 0,  12 events processed so far  <<<===
AthenaHiveEventLoopMgr                  12  0      INFO   ===>>>  start processing event #12, run #0 on slot 0,  12 events processed so far  <<<===
xAODTestReadSymlink                     12  0      INFO C (as AuxElement): 13000; S 1200
AthenaHiveEventLoopMgr                             INFO   ===>>>  done processing event #12, run #0 on slot 0,  13 events processed so far  <<<===
AthenaHiveEventLoopMgr                  13  0      INFO   ===>>>  start processing event #13, run #0 on slot 0,  13 events processed so far  <<<===
xAODTestReadSymlink                     13  0      INFO C (as AuxElement): 14000; S 1300
AthenaHiveEventLoopMgr                             INFO   ===>>>  done processing event #13, run #0 on slot 0,  14 events processed so far  <<<===
AthenaHiveEventLoopMgr                  14  0      INFO   ===>>>  start processing event #14, run #0 on slot 0,  14 events processed so far  <<<===
xAODTestReadSymlink                     14  0      INFO C (as AuxElement): 15000; S 1400
AthenaHiveEventLoopMgr                             INFO   ===>>>  done processing event #14, run #0 on slot 0,  15 events processed so far  <<<===
AthenaHiveEventLoopMgr                  15  0      INFO   ===>>>  start processing event #15, run #0 on slot 0,  15 events processed so far  <<<===
xAODTestReadSymlink                     15  0      INFO C (as AuxElement): 16000; S 1500
AthenaHiveEventLoopMgr                             INFO   ===>>>  done processing event #15, run #0 on slot 0,  16 events processed so far  <<<===
AthenaHiveEventLoopMgr                  16  0      INFO   ===>>>  start processing event #16, run #0 on slot 0,  16 events processed so far  <<<===
xAODTestReadSymlink                     16  0      INFO C (as AuxElement): 17000; S 1600
AthenaHiveEventLoopMgr                             INFO   ===>>>  done processing event #16, run #0 on slot 0,  17 events processed so far  <<<===
AthenaHiveEventLoopMgr                  17  0      INFO   ===>>>  start processing event #17, run #0 on slot 0,  17 events processed so far  <<<===
xAODTestReadSymlink                     17  0      INFO C (as AuxElement): 18000; S 1700
AthenaHiveEventLoopMgr                             INFO   ===>>>  done processing event #17, run #0 on slot 0,  18 events processed so far  <<<===
AthenaHiveEventLoopMgr                  18  0      INFO   ===>>>  start processing event #18, run #0 on slot 0,  18 events processed so far  <<<===
xAODTestReadSymlink                     18  0      INFO C (as AuxElement): 19000; S 1800
AthenaHiveEventLoopMgr                             INFO   ===>>>  done processing event #18, run #0 on slot 0,  19 events processed so far  <<<===
AthenaHiveEventLoopMgr                  19  0      INFO   ===>>>  start processing event #19, run #0 on slot 0,  19 events processed so far  <<<===
xAODTestReadSymlink                     19  0      INFO C (as AuxElement): 20000; S 1900
AthenaHiveEventLoopMgr                             INFO   ===>>>  done processing event #19, run #0 on slot 0,  20 events processed so far  <<<===
AthenaHiveEventLoopMgr                             INFO ---> Loop Finished (seconds): 2.07953
xaoddata.root                                      INFO Database being retired...
Domain[ROOT_All]                                   INFO ->  Deaccess DbDatabase   READ      [ROOT_All] 26CFC7E8-56D1-E743-B5D8-F778B489126A
ApplicationMgr                                     INFO Application Manager Stopped successfully
IncidentProcAlg1                                   INFO Finalize
SGInputLoader                                      INFO Finalizing SGInputLoader...
LoadReadDicts                                      INFO Finalizing LoadReadDicts...
IncidentProcAlg2                                   INFO Finalize
AvalancheSchedulerSvc                              INFO Joining Scheduler thread
PyComponentMgr                                     INFO Finalizing PyComponentMgr...
EventDataSvc                                       INFO Finalizing EventDataSvc - package version StoreGate-00-00-00
Domain[ROOT_All]                                   INFO >   Deaccess DbDomain     READ      [ROOT_All] 
XMLCatalog                                         INFO File 'xAODTestSymlinks2MT_catalog.xml' does not exist. New file created.
AthDictLoaderSvc                                   INFO in finalize...
ToolSvc                                            INFO Removing all tools created by ToolSvc
ChronoStatSvc.finalize()                           INFO  Service finalized successfully 
ApplicationMgr                                     INFO Application Manager Finalized successfully
ApplicationMgr                                     INFO Application Manager Terminated successfully
Py:Athena            INFO leaving with code 0: "successful run"
